…
<br>

    group_by(flights, dest) %>%                       
      summarize(count = n(),                          
                dist = mean(distance, na.rm = TRUE),  
                delay = mean(arr_delay, na.rm = TRUE) 
                ) 

    ## # A tibble: 105 x 4
    ##    dest  count  dist delay
    ##    <chr> <int> <dbl> <dbl>
    ##  1 ABQ     254 1826   4.38
    ##  2 ACK     265  199   4.85
    ##  3 ALB     439  143  14.4 
    ##  4 ANC       8 3370  -2.5 
    ##  5 ATL   17215  757. 11.3 
    ##  6 AUS    2439 1514.  6.02
    ##  7 AVL     275  584.  8.00
    ##  8 BDL     443  116   7.05
    ##  9 BGR     375  378   8.03
    ## 10 BHM     297  866. 16.9 
    ## # … with 95 more rows
…
